^C:\USERS\ERBOP\ONEDRIVE\DOKUMENTY\SOURCE\REPOS\LAB_4_5_6\LAB5\LAB5\STDAFX.CPP
/c /IC:\USERS\ERBOP\ONEDRIVE\DOKUMENTY\SOURCE\REPOS\LAB_4_5_6\LAB5\PACKAGES\NUPENGL.CORE.0.1.0.1\BUILD\NATIVE\../..//BUILD/NATIVE/INCLUDE/ /ZI /nologo /W3 /WX- /diagnostics:classic /sdl /Od /Oy- /D WIN32 /D _DEBUG /D _CONSOLE /D _UNICODE /D UNICODE /Gm- /EHsc /RTC1 /MDd /GS /fp:precise /permissive- /Zc:wchar_t /Zc:forScope /Zc:inline /Yc"stdafx.h" /Fp"DEBUG\LAB5.PCH" /Fo"DEBUG\\" /Fd"DEBUG\VC141.PDB" /Gd /TP /analyze- /FC C:\USERS\ERBOP\ONEDRIVE\DOKUMENTY\SOURCE\REPOS\LAB_4_5_6\LAB5\LAB5\STDAFX.CPP
^C:\USERS\ERBOP\ONEDRIVE\DOKUMENTY\SOURCE\REPOS\LAB_4_5_6\LAB5\LAB5\LAB5.CPP
/c /IC:\USERS\ERBOP\ONEDRIVE\DOKUMENTY\SOURCE\REPOS\LAB_4_5_6\LAB5\PACKAGES\NUPENGL.CORE.0.1.0.1\BUILD\NATIVE\../..//BUILD/NATIVE/INCLUDE/ /ZI /nologo /W3 /WX- /diagnostics:classic /sdl /Od /Oy- /D WIN32 /D _DEBUG /D _CONSOLE /D _UNICODE /D UNICODE /Gm- /EHsc /RTC1 /MDd /GS /fp:precise /permissive- /Zc:wchar_t /Zc:forScope /Zc:inline /Yu"stdafx.h" /Fp"DEBUG\LAB5.PCH" /Fo"DEBUG\\" /Fd"DEBUG\VC141.PDB" /Gd /TP /analyze- /FC C:\USERS\ERBOP\ONEDRIVE\DOKUMENTY\SOURCE\REPOS\LAB_4_5_6\LAB5\LAB5\LAB5.CPP
