^C:\USERS\ERBOP\ONEDRIVE\DOKUMENTY\SOURCE\REPOS\LAB_4_5_6\LAB6\LAB6\STDAFX.CPP
C:\USERS\ERBOP\ONEDRIVE\DOKUMENTY\SOURCE\REPOS\LAB_4_5_6\LAB6\LAB6\DEBUG\LAB6.PCH
C:\USERS\ERBOP\ONEDRIVE\DOKUMENTY\SOURCE\REPOS\LAB_4_5_6\LAB6\LAB6\DEBUG\VC141.PDB
C:\USERS\ERBOP\ONEDRIVE\DOKUMENTY\SOURCE\REPOS\LAB_4_5_6\LAB6\LAB6\DEBUG\VC141.IDB
C:\USERS\ERBOP\ONEDRIVE\DOKUMENTY\SOURCE\REPOS\LAB_4_5_6\LAB6\LAB6\DEBUG\STDAFX.OBJ
^C:\USERS\ERBOP\ONEDRIVE\DOKUMENTY\SOURCE\REPOS\LAB_4_5_6\LAB6\LAB6\LAB6.CPP
C:\USERS\ERBOP\ONEDRIVE\DOKUMENTY\SOURCE\REPOS\LAB_4_5_6\LAB6\LAB6\DEBUG\VC141.PDB
C:\USERS\ERBOP\ONEDRIVE\DOKUMENTY\SOURCE\REPOS\LAB_4_5_6\LAB6\LAB6\DEBUG\VC141.IDB
C:\USERS\ERBOP\ONEDRIVE\DOKUMENTY\SOURCE\REPOS\LAB_4_5_6\LAB6\LAB6\DEBUG\LAB6.OBJ
